{
  "data":[
    {
      "id":5307,
      "name":"2005\/2006",
      "league_id":2,
      "is_current_season":false,
      "current_round_id":null,
      "current_stage_id":null
    },
    {
      "id":5308,
      "name":"2006\/2007",
      "league_id":2,
      "is_current_season":false,
      "current_round_id":null,
      "current_stage_id":null
    },
    {
      "id":5309,
      "name":"2007\/2008",
      "league_id":2,
      "is_current_season":false,
      "current_round_id":null,
      "current_stage_id":null
    },
    {
      "id":5310,
      "name":"2008\/2009",
      "league_id":2,
      "is_current_season":false,
      "current_round_id":null,
      "current_stage_id":null
    },
    {
      "id":5311,
      "name":"2009\/2010",
      "league_id":2,
      "is_current_season":false,
      "current_round_id":null,
      "current_stage_id":null
    },
    {
      "id":5312,
      "name":"2010\/2011",
      "league_id":2,
      "is_current_season":false,
      "current_round_id":null,
      "current_stage_id":null
    },
    {
      "id":5313,
      "name":"2011\/2012",
      "league_id":2,
      "is_current_season":false,
      "current_round_id":null,
      "current_stage_id":null
    },
    {
      "id":5318,
      "name":"2012\/2013",
      "league_id":2,
      "is_current_season":false,
      "current_round_id":null,
      "current_stage_id":null
    },
    {
      "id":5315,
      "name":"2013\/2014",
      "league_id":2,
      "is_current_season":false,
      "current_round_id":null,
      "current_stage_id":null
    },
    {
      "id":5322,
      "name":"2014\/2015",
      "league_id":2,
      "is_current_season":false,
      "current_round_id":null,
      "current_stage_id":null
    },
    {
      "id":5321,
      "name":"2015\/2016",
      "league_id":2,
      "is_current_season":false,
      "current_round_id":null,
      "current_stage_id":null
    },
    {
      "id":718,
      "name":"2016\/2017",
      "league_id":2,
      "is_current_season":false,
      "current_round_id":null,
      "current_stage_id":null
    },
    {
      "id":7907,
      "name":"2017\/2018",
      "league_id":2,
      "is_current_season":false,
      "current_round_id":null,
      "current_stage_id":5000511
    },
    {
      "id":12950,
      "name":"2018\/2019",
      "league_id":2,
      "is_current_season":true,
      "current_round_id":null,
      "current_stage_id":7743657
    },
    {
      "id":5326,
      "name":"2005\/2006",
      "league_id":5,
      "is_current_season":false,
      "current_round_id":null,
      "current_stage_id":null
    },
    {
      "id":5327,
      "name":"2006\/2007",
      "league_id":5,
      "is_current_season":false,
      "current_round_id":null,
      "current_stage_id":null
    },
    {
      "id":5328,
      "name":"2007\/2008",
      "league_id":5,
      "is_current_season":false,
      "current_round_id":null,
      "current_stage_id":null
    },
    {
      "id":5329,
      "name":"2008\/2009",
      "league_id":5,
      "is_current_season":false,
      "current_round_id":null,
      "current_stage_id":null
    },
    {
      "id":5330,
      "name":"2009\/2010",
      "league_id":5,
      "is_current_season":false,
      "current_round_id":null,
      "current_stage_id":null
    },
    {
      "id":5331,
      "name":"2010\/2011",
      "league_id":5,
      "is_current_season":false,
      "current_round_id":null,
      "current_stage_id":null
    },
    {
      "id":5332,
      "name":"2011\/2012",
      "league_id":5,
      "is_current_season":false,
      "current_round_id":null,
      "current_stage_id":null
    },
    {
      "id":5333,
      "name":"2012\/2013",
      "league_id":5,
      "is_current_season":false,
      "current_round_id":null,
      "current_stage_id":null
    },
    {
      "id":5334,
      "name":"2013\/2014",
      "league_id":5,
      "is_current_season":false,
      "current_round_id":null,
      "current_stage_id":null
    },
    {
      "id":5335,
      "name":"2014\/2015",
      "league_id":5,
      "is_current_season":false,
      "current_round_id":null,
      "current_stage_id":null
    },
    {
      "id":5337,
      "name":"2015\/2016",
      "league_id":5,
      "is_current_season":false,
      "current_round_id":null,
      "current_stage_id":null
    },
    {
      "id":719,
      "name":"2016\/2017",
      "league_id":5,
      "is_current_season":false,
      "current_round_id":null,
      "current_stage_id":null
    },
    {
      "id":7908,
      "name":"2017\/2018",
      "league_id":5,
      "is_current_season":false,
      "current_round_id":null,
      "current_stage_id":5000520
    },
    {
      "id":12945,
      "name":"2018\/2019",
      "league_id":5,
      "is_current_season":true,
      "current_round_id":null,
      "current_stage_id":7743662
    },
    {
      "id":1586,
      "name":"2005\/2006",
      "league_id":8,
      "is_current_season":false,
      "current_round_id":null,
      "current_stage_id":null
    },
    {
      "id":8,
      "name":"2006\/2007",
      "league_id":8,
      "is_current_season":false,
      "current_round_id":null,
      "current_stage_id":null
    },
    {
      "id":14,
      "name":"2007\/2008",
      "league_id":8,
      "is_current_season":false,
      "current_round_id":null,
      "current_stage_id":null
    },
    {
      "id":6,
      "name":"2008\/2009",
      "league_id":8,
      "is_current_season":false,
      "current_round_id":null,
      "current_stage_id":null
    },
    {
      "id":11,
      "name":"2009\/2010",
      "league_id":8,
      "is_current_season":false,
      "current_round_id":null,
      "current_stage_id":null
    },
    {
      "id":2,
      "name":"2010\/2011",
      "league_id":8,
      "is_current_season":false,
      "current_round_id":null,
      "current_stage_id":null
    },
    {
      "id":9,
      "name":"2011\/2012",
      "league_id":8,
      "is_current_season":false,
      "current_round_id":null,
      "current_stage_id":null
    },
    {
      "id":7,
      "name":"2012\/2013",
      "league_id":8,
      "is_current_season":false,
      "current_round_id":null,
      "current_stage_id":null
    },
    {
      "id":3,
      "name":"2013\/2014",
      "league_id":8,
      "is_current_season":false,
      "current_round_id":null,
      "current_stage_id":null
    },
    {
      "id":12,
      "name":"2014\/2015",
      "league_id":8,
      "is_current_season":false,
      "current_round_id":null,
      "current_stage_id":null
    },
    {
      "id":10,
      "name":"2015\/2016",
      "league_id":8,
      "is_current_season":false,
      "current_round_id":null,
      "current_stage_id":null
    },
    {
      "id":13,
      "name":"2016\/2017",
      "league_id":8,
      "is_current_season":false,
      "current_round_id":null,
      "current_stage_id":null
    },
    {
      "id":6397,
      "name":"2017\/2018",
      "league_id":8,
      "is_current_season":false,
      "current_round_id":null,
      "current_stage_id":null
    },
    {
      "id":12962,
      "name":"2018\/2019",
      "league_id":8,
      "is_current_season":true,
      "current_round_id":147732,
      "current_stage_id":7456626
    },
    {
      "id":176,
      "name":"2005\/2006",
      "league_id":72,
      "is_current_season":false,
      "current_round_id":null,
      "current_stage_id":null
    },
    {
      "id":178,
      "name":"2006\/2007",
      "league_id":72,
      "is_current_season":false,
      "current_round_id":null,
      "current_stage_id":null
    },
    {
      "id":177,
      "name":"2007\/2008",
      "league_id":72,
      "is_current_season":false,
      "current_round_id":null,
      "current_stage_id":null
    },
    {
      "id":179,
      "name":"2008\/2009",
      "league_id":72,
      "is_current_season":false,
      "current_round_id":null,
      "current_stage_id":null
    },
    {
      "id":180,
      "name":"2009\/2010",
      "league_id":72,
      "is_current_season":false,
      "current_round_id":null,
      "current_stage_id":null
    },
    {
      "id":181,
      "name":"2010\/2011",
      "league_id":72,
      "is_current_season":false,
      "current_round_id":null,
      "current_stage_id":null
    },
    {
      "id":182,
      "name":"2011\/2012",
      "league_id":72,
      "is_current_season":false,
      "current_round_id":null,
      "current_stage_id":null
    },
    {
      "id":183,
      "name":"2012\/2013",
      "league_id":72,
      "is_current_season":false,
      "current_round_id":null,
      "current_stage_id":null
    }
  ],
  "meta":{
    "subscription":{
      "started_at":{
        "date":"2019-02-12 00:11:17.000000",
        "timezone_type":3,
        "timezone":"UTC"
      },
      "trial_ends_at":{
        "date":"2019-02-26 00:11:09.000000",
        "timezone_type":3,
        "timezone":"UTC"
      },
      "ends_at":null
    },
    "plan":{
      "name":"Segio RUST Custom Soccer Plan",
      "price":"20",
      "request_limit":"2000,60"
    },
    "sports":[
      {
        "id":1,
        "name":"Soccer",
        "current":true
      }
    ],
    "pagination":{
      "total":112,
      "count":50,
      "per_page":50,
      "current_page":1,
      "total_pages":3,
      "links":{
        "next":"https:\/\/soccer.sportmonks.com\/api\/v2.0\/seasons?page=2"
      }
    }
  }
}